…
The function `read_excel()` receives a path in your computer to the file you want to read. We will explain in class the concept of relative and absolute path (in the example, the path is relative, since we have read a file inside the working directory, which you can verify with `getwd()`). 

We can print `iris_excel` on the console and check that the info is an already known tibble.


```r
iris_excel
```

```
## # A tibble: 150 x 5
##    sepal_length sepal_width petal_length petal_width species
##           <dbl>       <dbl>        <dbl>       <dbl> <chr>  
##  1          5.1         3.5          1.4         0.2 setosa 
##  2          4.9         3            1.4         0.2 setosa 
##  3          4.7         3.2          1.3         0.2 setosa 
##  4          4.6         3.1          1.5         0.2 setosa 
##  5          5           3.6          1.4         0.2 setosa 
##  6          5.4         3.9          1.7         0.4 setosa 
##  7          4.6         3.4          1.4         0.3 setosa 
##  8          5           3.4          1.5         0.2 setosa 
##  9          4.4         2.9          1.4         0.2 setosa 
## 10          4.9         3.1          1.5         0.1 setosa 
## # … with 140 more rows
```
…
```r
datos_mal
```

```
## # A tibble: 29 x 12
##    `01. ACCIDENTES … ...2  ...3  ...4  ...5  ...6  ...7  ...8  ...9  ...10 ...11
##    <chr>             <chr> <chr> <chr> <chr> <chr> <chr> <chr> <chr> <chr> <chr>
##  1 <NA>              <NA>  <NA>  <NA>  <NA>  <NA>  <NA>  <NA>  <NA>  <NA>  <NA> 
##  2 <NA>              <NA>  <NA>  <NA>  <NA>  <NA>  <NA>  <NA>  <NA>  <NA>  <NA> 
##  3 <NA>              <NA>  <NA>  <NA>  <NA>  <NA>  <NA>  <NA>  <NA>  <NA>  <NA> 
##  4 <NA>              <NA>  <NA>  <NA>  <NA>  <NA>  <NA>  <NA>  <NA>  <NA>  <NA> 
##  5 Indicadores       Nº A… <NA>  <NA>  <NA>  <NA>  <NA>  <NA>  <NA>  <NA>  <NA> 
##  6 Año               2009  <NA>  <NA>  <NA>  <NA>  <NA>  <NA>  <NA>  <NA>  <NA> 
##  7 DISTRITO_ACCIDEN… COLI… COLI… CHOQ… ATRO… VUEL… CAÍD… CAÍD… CAÍD… CAÍD… OTRA…
##  8 ARGANZUELA        389   54    126   75    9     43    9     4     5     8    
##  9 BARAJAS           89    6     53    21    <NA>  12    2     1     2     2    
## 10 CARABANCHEL       375   44    171   137   8     36    13    6     9     8    
## # … with 19 more rows, and 1 more variable: ...12 <chr>
```
…
```
## # A tibble: 32 x 11
##      mpg   cyl  disp    hp  drat    wt  qsec    vs    am  gear  carb
##    <dbl> <dbl> <dbl> <dbl> <dbl> <dbl> <dbl> <dbl> <dbl> <dbl> <dbl>
##  1  21       6  160    110  3.9   2.62  16.5     0     1     4     4
##  2  21       6  160    110  3.9   2.88  17.0     0     1     4     4
##  3  22.8     4  108     93  3.85  2.32  18.6     1     1     4     1
##  4  21.4     6  258    110  3.08  3.22  19.4     1     0     3     1
##  5  18.7     8  360    175  3.15  3.44  17.0     0     0     3     2
##  6  18.1     6  225    105  2.76  3.46  20.2     1     0     3     1
##  7  14.3     8  360    245  3.21  3.57  15.8     0     0     3     4
##  8  24.4     4  147.    62  3.69  3.19  20       1     0     4     2
##  9  22.8     4  141.    95  3.92  3.15  22.9     1     0     4     2
## 10  19.2     6  168.   123  3.92  3.44  18.3     1     0     4     4
## # … with 22 more rows
```
…
**Exercise.** Check the classes of all the columns. 

Some columns have been considered by R as numeric but don't have decimal numbers. We should convert them to integer, since this type of object needs less space in memory than real numbers. We don't know yet how to change the columns of a data frame or tibble, but we can do these changed directly when reading the file. 

All the family of functions `read_*()` from the `readr` package guess the types of the columns (this may be explained during the sessions) but there is a way of forcing it: the `col_types` parameter.

There are a couple of ways of specifying these types. Here is an example for one. We use a character vector with one letter for each columns. The letters will represent the types: in this case, `n` for `numerical`, `i` for `integer` and `l` for `logical`.


```r
read_csv("https://github.com/tidyverse/readr/raw/master/inst/extdata/mtcars.csv", col_types = "ninnnnnilii")
```

```
## # A tibble: 32 x 11
##      mpg   cyl  disp    hp  drat    wt  qsec    vs am     gear  carb
##    <dbl> <int> <dbl> <dbl> <dbl> <dbl> <dbl> <int> <lgl> <int> <int>
##  1  21       6  160    110  3.9   2.62  16.5     0 TRUE      4     4
##  2  21       6  160    110  3.9   2.87  17.0     0 TRUE      4     4
##  3  22.8     4  108     93  3.85  2.32  18.6     1 TRUE      4     1
##  4  21.4     6  258    110  3.08  3.22  19.4     1 FALSE     3     1
##  5  18.7     8  360    175  3.15  3.44  17.0     0 FALSE     3     2
##  6  18.1     6  225    105  2.76  3.46  20.2     1 FALSE     3     1
##  7  14.3     8  360    245  3.21  3.57  15.8     0 FALSE     3     4
##  8  24.4     4  147.    62  3.69  3.19  20       1 FALSE     4     2
##  9  22.8     4  141.    95  3.92  3.15  22.9     1 FALSE     4     2
## 10  19.2     6  168.   123  3.92  3.44  18.3     1 FALSE     4     4
## # … with 22 more rows
```
